…
new_data <- merge(state_median, station_median, by = "STATE")

new_data$temp_diff <- new_data$station_median_temp - new_data$state_median_temp
new_data$wind_speed_diff <- new_data$station_median_wind_speed - new_data$state_median_wind_speed
new_data$euclidean <- sqrt(new_data$temp_diff^2 + new_data$wind_speed_diff^2)

q2 <- new_data %>% 
  group_by(STATE) %>% 
  arrange(euclidean) %>% 
  slice(1)
print(q2)
```

    ## # A tibble: 48 × 11
    ## # Groups:   STATE [48]
    ##    STATE state_median_temp state_median_wind_speed USAFID station_median_temp
    ##    <chr>             <dbl>                   <dbl>  <int>               <dbl>
    ##  1 AL                 23.3                     2.6 720265                23.1
    ##  2 AR                 24                       2.6 722188                23.9
    ##  3 AZ                 25.6                     3.6 722728                25.6
    ##  4 CA                 17                       3.6 722950                16.7
    ##  5 CO                 15                       3.6 724695                15.1
    ##  6 CT                 19.4                     3.1 725040                19.4
    ##  7 DE                 21.3                     3.6 724093                21.1
    ##  8 FL                 26.7                     3.6 722024                26.7
    ##  9 GA                 23                       2.6 722255                23  
    ## 10 IA                 22                       3.1 722097                22  
    ## # ℹ 38 more rows
    ## # ℹ 6 more variables: station_median_wind_speed <dbl>,
    ## #   station_median_lon <dbl>, station_median_lat <dbl>, temp_diff <dbl>,
    ## #   wind_speed_diff <dbl>, euclidean <dbl>
…
